Assignment 9 - K-means
…
Rows: 698 Columns: 75
── Column specification ────────────────────────────────────────────────────────
Delimiter: ","
chr  (1): site
dbl (74): year, strength_gtex, mean_dayl.s_Jan, mean_srad.wm2_Jan, mean_tmax...

ℹ Use `spec()` to retrieve the full column specification for this data.
ℹ Specify the column types or set `show_col_types = FALSE` to quiet this message.

Code

weather

# A tibble: 698 × 75
    year site    strength_gtex mean_dayl.s_Jan mean_srad.wm2_Jan mean_tmax.c_Jan
   <dbl> <chr>           <dbl>           <dbl>             <dbl>           <dbl>
 1  1980 Altus,…          25.3          35873.              242.            10.2
 2  1980 Ames P…          27.2          35743.              215.             9.2
 3  1980 Artesi…          26            36359               279.            13.4
 4  1980 Auburn…          24.8          36420.              240.            13.9
 5  1980 Beevil…          24.5          37494.              277             19.9
 6  1980 Belle …          28.1          35873.              224.             9.7
 7  1980 Bossie…          25.9          36451.              221.            13.2
 8  1980 Chicka…          25.9          35760.              244              9.5
 9  1980 Clarkd…          26.1          35678.              265.             5.8
10  1980 Colleg…          27.1          36941.              254             15.8
# ℹ 688 more rows
# ℹ 69 more variables: mean_tmin.c_Jan <dbl>, mean_vp.pa_Jan <dbl>,
#   sum_prcp.mm_Jan <dbl>, mean_dayl.s_Feb <dbl>, mean_srad.wm2_Feb <dbl>,
#   mean_tmax.c_Feb <dbl>, mean_tmin.c_Feb <dbl>, mean_vp.pa_Feb <dbl>,
#   sum_prcp.mm_Feb <dbl>, mean_dayl.s_Mar <dbl>, mean_srad.wm2_Mar <dbl>,
#   mean_tmax.c_Mar <dbl>, mean_tmin.c_Mar <dbl>, mean_vp.pa_Mar <dbl>,
#   sum_prcp.mm_Mar <dbl>, mean_dayl.s_Apr <dbl>, mean_srad.wm2_Apr <dbl>, …

Code

weather_n <- weather %>%
  dplyr::select(-c(year:strength_gtex))

weather_n

# A tibble: 698 × 72
   mean_dayl.s_Jan mean_srad.wm2_Jan mean_tmax.c_Jan mean_tmin.c_Jan
             <dbl>             <dbl>           <dbl>           <dbl>
 1          35873.              242.            10.2            -1.5
 2          35743.              215.             9.2             0.2
 3          36359               279.            13.4            -2.4
 4          36420.              240.            13.9             2.9
 5          37494.              277             19.9             7.2
 6          35873.              224.             9.7             0.7
 7          36451.              221.            13.2             3.2
 8          35760.              244              9.5            -1.8
 9          35678.              265.             5.8            -5.8
10          36941.              254             15.8             5.6
# ℹ 688 more rows
# ℹ 68 more variables: mean_vp.pa_Jan <dbl>, sum_prcp.mm_Jan <dbl>,
#   mean_dayl.s_Feb <dbl>, mean_srad.wm2_Feb <dbl>, mean_tmax.c_Feb <dbl>,
#   mean_tmin.c_Feb <dbl>, mean_vp.pa_Feb <dbl>, sum_prcp.mm_Feb <dbl>,
#   mean_dayl.s_Mar <dbl>, mean_srad.wm2_Mar <dbl>, mean_tmax.c_Mar <dbl>,
#   mean_tmin.c_Mar <dbl>, mean_vp.pa_Mar <dbl>, sum_prcp.mm_Mar <dbl>,
#   mean_dayl.s_Apr <dbl>, mean_srad.wm2_Apr <dbl>, mean_tmax.c_Apr <dbl>, …

Code

# normalizing the data
weather_norm <- weather_n%>%
  mutate(across(everything(), ~ scale(.x)))

weather_norm

# A tibble: 698 × 72
   mean_dayl.s_Jan[,1] mean_srad.wm2_Jan[,1] mean_tmax.c_Jan[,1]
                 <dbl>                 <dbl>               <dbl>
 1             -0.699                 -0.962            -0.904  
 2             -0.905                 -1.96             -1.15   
 3              0.0762                 0.365            -0.116  
 4              0.174                 -1.07              0.00684
 5              1.89                   0.285             1.48   
 6             -0.699                 -1.64             -1.03   
 7              0.222                 -1.73             -0.166  
 8             -0.879                 -0.905            -1.08   
 9             -1.01                  -0.151            -1.99   
10              1.00                  -0.544             0.475  
# ℹ 688 more rows
# ℹ 69 more variables: mean_tmin.c_Jan <dbl[,1]>, mean_vp.pa_Jan <dbl[,1]>,
#   sum_prcp.mm_Jan <dbl[,1]>, mean_dayl.s_Feb <dbl[,1]>,
#   mean_srad.wm2_Feb <dbl[,1]>, mean_tmax.c_Feb <dbl[,1]>,
#   mean_tmin.c_Feb <dbl[,1]>, mean_vp.pa_Feb <dbl[,1]>,
#   sum_prcp.mm_Feb <dbl[,1]>, mean_dayl.s_Mar <dbl[,1]>,
#   mean_srad.wm2_Mar <dbl[,1]>, mean_tmax.c_Mar <dbl[,1]>, …
…
